{
  "/equipment-query/api/**": {
    "target": "http://10.155.206.104:60515/",
    "secure": false
  },
  "/personnel-query/api/**": {
    "target": "http://10.155.206.104:60515/",
    "secure": false
  },
  "/task-query/api/**": {
    "target": "http://10.155.206.104:60515/",
    "secure": false
  },
  "/crusher/**": {
    "target": "http://10.155.206.104:60515/",
    "secure": false
  },
  "/reference-data/**": {
    "target": "http://10.155.206.104:60515/",
    "secure": false
  },
  "/login**": {
    "target": "http://10.155.206.104:60515/",
    "secure": false
  },
  "/me**": {
    "target": "http://10.155.206.104:60515/",
    "secure": false
  },
  "/myip**": {
    "target": "http://10.155.206.104:60515/",
    "secure": false
  },
  "/heartbeat**": {
    "target": "http://10.155.206.104:60515/",
    "secure": false
  },
  "/csrf**": {
    "target": "http://10.155.206.104:60515/",
    "secure": false
  },
  "/logout**": {
    "target": "http://10.155.206.104:60515/",
    "secure": false
  },
  "/wsboard" : {
    "target": "http://10.155.206.104:60515/",
    "secure": false,
    "ws": true,
    "logLevel": "debug"
  },
  "/wsboard/**" : {
    "target": "http://10.155.206.104:60515/",
    "secure": false,
    "ws": true,
    "logLevel": "debug"
  },
  "/board-template/api/**" : {
    "target": "http://10.155.206.104:60515/",
    "secure": false
  },
  "/board-schedule/api/**" : {
    "target": "http://10.155.206.104:60515/",
    "secure": false
  },
  "/detach-request-query/api/**" : {
    "target": "http://10.155.206.104:60515/",
    "secure": false
  }
}
